{
  "base": "semantic/",
  "paths": {
    "source": {
      "config": "src/theme.config",
      "definitions": "src/definitions/",
      "site": "src/site/",
      "themes": "src/themes/"
    },
    "output": {
      "packaged": "../build/semantic/",
      "uncompressed": "dist/components/",
      "compressed": "dist/components/",
      "themes": "../build/semantic/themes/"
    },
    "clean": "dist/"
  },
  "permission": false,
  "rtl": false,
  "version": "2.1.8"
}
